{
  "items": [
    {
      "created_at": "2021-12-01T13:34:21Z",
      "customized_metadata": {},
      "description": "",
      "external_id": "",
      "id": 973371,
      "links": [
        {
          "href": "/services/v4/sites/973371",
          "rel": "self"
        },
        {
          "href": "/services/v4/sites/973371/parent_site_groups",
          "rel": "parent_site_groups"
        },
        {
          "href": "/services/v4/sites/973371/child_site_sections",
          "rel": "child_site_sections"
        }
      ],
      "metadata": "",
      "name": "name 131",
      "rating": "AL0",
      "session_duration": null,
      "status": "ACTIVE",
      "tag": "tag_21",
      "updated_at": "2021-12-01T13:34:21Z",
      "url": ""
    },
    {
      "created_at": "2019-04-29T07:59:38Z",
      "customized_metadata": {},
      "description": "",
      "external_id": "",
      "id": 767268,
      "links": [
        {
          "href": "/services/v4/sites/767268",
          "rel": "self"
        },
        {
          "href": "/services/v4/sites/767268/parent_site_groups",
          "rel": "parent_site_groups"
        },
        {
          "href": "/services/v4/sites/767268/child_site_sections",
          "rel": "child_site_sections"
        }
      ],
      "metadata": "",
      "name": "name 151",
      "rating": "AL0",
      "session_duration": null,
      "status": "ACTIVE",
      "tag": "tag_41",
      "updated_at": "2019-04-29T07:59:38Z",
      "url": ""
    },
    {
      "created_at": "2017-03-06T12:01:30Z",
      "customized_metadata": {},
      "description": null,
      "external_id": "",
      "id": 657547,
      "links": [
        {
          "href": "/services/v4/sites/657547",
          "rel": "self"
        },
        {
          "href": "/services/v4/sites/657547/parent_site_groups",
          "rel": "parent_site_groups"
        },
        {
          "href": "/services/v4/sites/657547/child_site_sections",
          "rel": "child_site_sections"
        }
      ],
      "metadata": null,
      "name": "name 152",
      "rating": null,
      "session_duration": null,
      "status": "ACTIVE",
      "tag": "tag_42",
      "updated_at": "2017-03-06T12:03:13Z",
      "url": null
    },
    {
      "created_at": "2017-02-17T15:22:11Z",
      "customized_metadata": {},
      "description": "",
      "external_id": "",
      "id": 656868,
      "links": [
        {
          "href": "/services/v4/sites/656868",
          "rel": "self"
        },
        {
          "href": "/services/v4/sites/656868/parent_site_groups",
          "rel": "parent_site_groups"
        },
        {
          "href": "/services/v4/sites/656868/child_site_sections",
          "rel": "child_site_sections"
        }
      ],
      "metadata": "",
      "name": "name 153",
      "rating": "Unrated",
      "session_duration": null,
      "status": "ACTIVE",
      "tag": "tag_43",
      "updated_at": "2017-02-17T15:22:11Z",
      "url": ""
    },
    {
      "created_at": "2016-10-12T08:05:51Z",
      "customized_metadata": {},
      "description": null,
      "external_id": "",
      "id": 618709,
      "links": [
        {
          "href": "/services/v4/sites/618709",
          "rel": "self"
        },
        {
          "href": "/services/v4/sites/618709/parent_site_groups",
          "rel": "parent_site_groups"
        },
        {
          "href": "/services/v4/sites/618709/child_site_sections",
          "rel": "child_site_sections"
        }
      ],
      "metadata": null,
      "name": "name 154",
      "rating": null,
      "session_duration": null,
      "status": "ACTIVE",
      "tag": "tag_44",
      "updated_at": "2016-10-12T08:06:15Z",
      "url": null
    },
    {
      "created_at": "2016-10-12T08:05:50Z",
      "customized_metadata": {},
      "description": null,
      "external_id": "",
      "id": 618706,
      "links": [
        {
          "href": "/services/v4/sites/618706",
          "rel": "self"
        },
        {
          "href": "/services/v4/sites/618706/parent_site_groups",
          "rel": "parent_site_groups"
        },
        {
          "href": "/services/v4/sites/618706/child_site_sections",
          "rel": "child_site_sections"
        }
      ],
      "metadata": null,
      "name": "name 155",
      "rating": null,
      "session_duration": null,
      "status": "ACTIVE",
      "tag": "tag_45",
      "updated_at": "2016-10-12T08:06:15Z",
      "url": null
    },
    {
      "created_at": "2016-10-12T08:05:49Z",
      "customized_metadata": {},
      "description": null,
      "external_id": "",
      "id": 618705,
      "links": [
        {
          "href": "/services/v4/sites/618705",
          "rel": "self"
        },
        {
          "href": "/services/v4/sites/618705/parent_site_groups",
          "rel": "parent_site_groups"
        },
        {
          "href": "/services/v4/sites/618705/child_site_sections",
          "rel": "child_site_sections"
        }
      ],
      "metadata": null,
      "name": "name 156",
      "rating": null,
      "session_duration": null,
      "status": "INACTIVE",
      "tag": "tag_46",
      "updated_at": "2017-02-13T11:35:45Z",
      "url": null
    },
    {
      "created_at": "2016-10-12T08:05:48Z",
      "customized_metadata": {},
      "description": null,
      "external_id": "",
      "id": 618704,
      "links": [
        {
          "href": "/services/v4/sites/618704",
          "rel": "self"
        },
        {
          "href": "/services/v4/sites/618704/parent_site_groups",
          "rel": "parent_site_groups"
        },
        {
          "href": "/services/v4/sites/618704/child_site_sections",
          "rel": "child_site_sections"
        }
      ],
      "metadata": null,
      "name": "name 157",
      "rating": null,
      "session_duration": null,
      "status": "ACTIVE",
      "tag": "tag_47",
      "updated_at": "2017-02-13T12:26:24Z",
      "url": null
    },
    {
      "created_at": "2016-10-12T08:05:45Z",
      "customized_metadata": {},
      "description": null,
      "external_id": "",
      "id": 618682,
      "links": [
        {
          "href": "/services/v4/sites/618682",
          "rel": "self"
        },
        {
          "href": "/services/v4/sites/618682/parent_site_groups",
          "rel": "parent_site_groups"
        },
        {
          "href": "/services/v4/sites/618682/child_site_sections",
          "rel": "child_site_sections"
        }
      ],
      "metadata": null,
      "name": "name 158",
      "rating": null,
      "session_duration": null,
      "status": "ACTIVE",
      "tag": "tag_48",
      "updated_at": "2016-10-12T08:06:10Z",
      "url": null
    },
    {
      "created_at": "2016-10-12T08:05:44Z",
      "customized_metadata": {},
      "description": null,
      "external_id": "",
      "id": 618676,
      "links": [
        {
          "href": "/services/v4/sites/618676",
          "rel": "self"
        },
        {
          "href": "/services/v4/sites/618676/parent_site_groups",
          "rel": "parent_site_groups"
        },
        {
          "href": "/services/v4/sites/618676/child_site_sections",
          "rel": "child_site_sections"
        }
      ],
      "metadata": null,
      "name": "name 159",
      "rating": "Unrated",
      "session_duration": null,
      "status": "ACTIVE",
      "tag": "tag_49",
      "updated_at": "2017-01-23T13:35:30Z",
      "url": ""
    }
  ],
  "links": [
    {
      "href": "/services/v4/sites?page=1&per_page=10",
      "rel": "self"
    },
    {
      "href": "/services/v4/sites?page=2&per_page=10",
      "rel": "next"
    },
    {
      "href": "/services/v4/sites?page=3&per_page=10",
      "rel": "last"
    }
  ],
  "page": 1,
  "per_page": 10,
  "total_count": 29,
  "total_page": 3
}
