{
  "items": [
    {
      "created_at": "2016-10-12T08:05:43Z",
      "customized_metadata": {},
      "description": null,
      "external_id": "",
      "id": 618675,
      "links": [
        {
          "href": "/services/v4/sites/618675",
          "rel": "self"
        },
        {
          "href": "/services/v4/sites/618675/parent_site_groups",
          "rel": "parent_site_groups"
        },
        {
          "href": "/services/v4/sites/618675/child_site_sections",
          "rel": "child_site_sections"
        }
      ],
      "metadata": null,
      "name": "name 160",
      "rating": null,
      "session_duration": null,
      "status": "INACTIVE",
      "tag": "tag_50",
      "updated_at": "2017-02-13T11:35:39Z",
      "url": null
    },
    {
      "created_at": "2016-10-12T08:05:43Z",
      "customized_metadata": {},
      "description": null,
      "external_id": "",
      "id": 618674,
      "links": [
        {
          "href": "/services/v4/sites/618674",
          "rel": "self"
        },
        {
          "href": "/services/v4/sites/618674/parent_site_groups",
          "rel": "parent_site_groups"
        },
        {
          "href": "/services/v4/sites/618674/child_site_sections",
          "rel": "child_site_sections"
        }
      ],
      "metadata": null,
      "name": "name 161",
      "rating": "Unrated",
      "session_duration": null,
      "status": "ACTIVE",
      "tag": "tag_51",
      "updated_at": "2017-02-13T12:26:23Z",
      "url": ""
    },
    {
      "created_at": "2016-10-12T08:05:43Z",
      "customized_metadata": {},
      "description": null,
      "external_id": "",
      "id": 618673,
      "links": [
        {
          "href": "/services/v4/sites/618673",
          "rel": "self"
        },
        {
          "href": "/services/v4/sites/618673/parent_site_groups",
          "rel": "parent_site_groups"
        },
        {
          "href": "/services/v4/sites/618673/child_site_sections",
          "rel": "child_site_sections"
        }
      ],
      "metadata": null,
      "name": "name 162",
      "rating": null,
      "session_duration": null,
      "status": "ACTIVE",
      "tag": "tag_52",
      "updated_at": "2016-10-12T08:06:09Z",
      "url": null
    },
    {
      "created_at": "2016-10-12T08:05:42Z",
      "customized_metadata": {},
      "description": null,
      "external_id": "",
      "id": 618670,
      "links": [
        {
          "href": "/services/v4/sites/618670",
          "rel": "self"
        },
        {
          "href": "/services/v4/sites/618670/parent_site_groups",
          "rel": "parent_site_groups"
        },
        {
          "href": "/services/v4/sites/618670/child_site_sections",
          "rel": "child_site_sections"
        }
      ],
      "metadata": null,
      "name": "name 163",
      "rating": null,
      "session_duration": null,
      "status": "ACTIVE",
      "tag": "tag_53",
      "updated_at": "2016-10-12T08:06:09Z",
      "url": null
    },
    {
      "created_at": "2016-10-12T08:05:39Z",
      "customized_metadata": {},
      "description": null,
      "external_id": "",
      "id": 618646,
      "links": [
        {
          "href": "/services/v4/sites/618646",
          "rel": "self"
        },
        {
          "href": "/services/v4/sites/618646/parent_site_groups",
          "rel": "parent_site_groups"
        },
        {
          "href": "/services/v4/sites/618646/child_site_sections",
          "rel": "child_site_sections"
        }
      ],
      "metadata": null,
      "name": "name 164",
      "rating": "Unrated",
      "session_duration": null,
      "status": "ACTIVE",
      "tag": "tag_54",
      "updated_at": "2017-02-14T13:44:00Z",
      "url": ""
    },
    {
      "created_at": "2016-10-12T08:05:38Z",
      "customized_metadata": {},
      "description": null,
      "external_id": "",
      "id": 618644,
      "links": [
        {
          "href": "/services/v4/sites/618644",
          "rel": "self"
        },
        {
          "href": "/services/v4/sites/618644/parent_site_groups",
          "rel": "parent_site_groups"
        },
        {
          "href": "/services/v4/sites/618644/child_site_sections",
          "rel": "child_site_sections"
        }
      ],
      "metadata": null,
      "name": "name 165",
      "rating": null,
      "session_duration": null,
      "status": "ACTIVE",
      "tag": "tag_55",
      "updated_at": "2017-02-13T12:26:22Z",
      "url": null
    },
    {
      "created_at": "2016-10-12T08:05:35Z",
      "customized_metadata": {},
      "description": null,
      "external_id": "",
      "id": 618622,
      "links": [
        {
          "href": "/services/v4/sites/618622",
          "rel": "self"
        },
        {
          "href": "/services/v4/sites/618622/parent_site_groups",
          "rel": "parent_site_groups"
        },
        {
          "href": "/services/v4/sites/618622/child_site_sections",
          "rel": "child_site_sections"
        }
      ],
      "metadata": null,
      "name": "name 166",
      "rating": null,
      "session_duration": null,
      "status": "ACTIVE",
      "tag": "tag_56",
      "updated_at": "2016-10-12T08:06:06Z",
      "url": null
    },
    {
      "created_at": "2016-10-12T08:05:34Z",
      "customized_metadata": {},
      "description": null,
      "external_id": "",
      "id": 618621,
      "links": [
        {
          "href": "/services/v4/sites/618621",
          "rel": "self"
        },
        {
          "href": "/services/v4/sites/618621/parent_site_groups",
          "rel": "parent_site_groups"
        },
        {
          "href": "/services/v4/sites/618621/child_site_sections",
          "rel": "child_site_sections"
        }
      ],
      "metadata": null,
      "name": "name 167",
      "rating": null,
      "session_duration": null,
      "status": "INACTIVE",
      "tag": "tag_57",
      "updated_at": "2017-02-13T11:35:28Z",
      "url": null
    },
    {
      "created_at": "2016-10-12T08:05:34Z",
      "customized_metadata": {},
      "description": null,
      "external_id": "",
      "id": 618620,
      "links": [
        {
          "href": "/services/v4/sites/618620",
          "rel": "self"
        },
        {
          "href": "/services/v4/sites/618620/parent_site_groups",
          "rel": "parent_site_groups"
        },
        {
          "href": "/services/v4/sites/618620/child_site_sections",
          "rel": "child_site_sections"
        }
      ],
      "metadata": null,
      "name": "name 168",
      "rating": null,
      "session_duration": null,
      "status": "ACTIVE",
      "tag": "tag_58",
      "updated_at": "2017-02-13T12:26:21Z",
      "url": null
    },
    {
      "created_at": "2016-10-12T08:05:31Z",
      "customized_metadata": {},
      "description": null,
      "external_id": "",
      "id": 618602,
      "links": [
        {
          "href": "/services/v4/sites/618602",
          "rel": "self"
        },
        {
          "href": "/services/v4/sites/618602/parent_site_groups",
          "rel": "parent_site_groups"
        },
        {
          "href": "/services/v4/sites/618602/child_site_sections",
          "rel": "child_site_sections"
        }
      ],
      "metadata": null,
      "name": "name 169",
      "rating": null,
      "session_duration": null,
      "status": "ACTIVE",
      "tag": "tag_59",
      "updated_at": "2016-10-12T08:06:21Z",
      "url": null
    }
  ],
  "links": [
    {
      "href": "/services/v4/sites?page=2&per_page=10",
      "rel": "self"
    },
    {
      "href": "/services/v4/sites?page=1&per_page=10",
      "rel": "prev"
    },
    {
      "href": "/services/v4/sites?page=3&per_page=10",
      "rel": "next"
    },
    {
      "href": "/services/v4/sites?page=3&per_page=10",
      "rel": "last"
    }
  ],
  "page": 2,
  "per_page": 10,
  "total_count": 29,
  "total_page": 3
}
