{
  "items": [
    {
      "content_owner_id": null,
      "created_at": "2026-05-12T12:13:57Z",
      "description": "description 9",
      "duration": 74,
      "external_id": "EXT-00000019",
      "id": 470827739,
      "links": [
        {
          "href": "/services/v4/videos/470827739",
          "rel": "self"
        },
        {
          "href": "/services/v4/videos/470827739/parent_video_groups",
          "rel": "parent_video_groups"
        },
        {
          "href": "/services/v4/videos/470827739/parent_series",
          "rel": "parent_series"
        }
      ],
      "network_id": 100001,
      "rating": "",
      "secondary_ids": [],
      "status": "ACTIVE",
      "title1": "title1 13",
      "updated_at": "2026-05-12T12:13:57Z"
    },
    {
      "content_owner_id": null,
      "created_at": "2026-05-12T12:13:52Z",
      "description": "description 14",
      "duration": 74,
      "external_id": "EXT-00000020",
      "id": 470827738,
      "links": [
        {
          "href": "/services/v4/videos/470827738",
          "rel": "self"
        },
        {
          "href": "/services/v4/videos/470827738/parent_video_groups",
          "rel": "parent_video_groups"
        },
        {
          "href": "/services/v4/videos/470827738/parent_series",
          "rel": "parent_series"
        }
      ],
      "network_id": 100001,
      "rating": "",
      "secondary_ids": [],
      "status": "ACTIVE",
      "title1": "title1 14",
      "updated_at": "2026-05-12T12:13:52Z"
    },
    {
      "content_owner_id": null,
      "created_at": "2026-05-12T12:13:52Z",
      "description": "description 9",
      "duration": 74,
      "external_id": "EXT-00000021",
      "id": 470827737,
      "links": [
        {
          "href": "/services/v4/videos/470827737",
          "rel": "self"
        },
        {
          "href": "/services/v4/videos/470827737/parent_video_groups",
          "rel": "parent_video_groups"
        },
        {
          "href": "/services/v4/videos/470827737/parent_series",
          "rel": "parent_series"
        }
      ],
      "network_id": 100001,
      "rating": "",
      "secondary_ids": [],
      "status": "ACTIVE",
      "title1": "title1 15",
      "updated_at": "2026-05-12T12:13:52Z"
    },
    {
      "content_owner_id": null,
      "created_at": "2026-05-12T12:18:09Z",
      "description": "",
      "duration": null,
      "external_id": "EXT-00000022",
      "id": 470827352,
      "links": [
        {
          "href": "/services/v4/videos/470827352",
          "rel": "self"
        },
        {
          "href": "/services/v4/videos/470827352/parent_video_groups",
          "rel": "parent_video_groups"
        },
        {
          "href": "/services/v4/videos/470827352/parent_series",
          "rel": "parent_series"
        }
      ],
      "network_id": 100001,
      "rating": "",
      "secondary_ids": [],
      "status": "ACTIVE",
      "title1": "title1 16",
      "updated_at": "2026-05-12T12:18:09Z"
    },
    {
      "content_owner_id": null,
      "created_at": "2026-05-12T12:18:08Z",
      "description": "description 9",
      "duration": 74,
      "external_id": "EXT-00000023",
      "id": 470827351,
      "links": [
        {
          "href": "/services/v4/videos/470827351",
          "rel": "self"
        },
        {
          "href": "/services/v4/videos/470827351/parent_video_groups",
          "rel": "parent_video_groups"
        },
        {
          "href": "/services/v4/videos/470827351/parent_series",
          "rel": "parent_series"
        }
      ],
      "network_id": 100001,
      "rating": "",
      "secondary_ids": [],
      "status": "ACTIVE",
      "title1": "title1 17",
      "updated_at": "2026-05-12T12:18:08Z"
    },
    {
      "content_owner_id": null,
      "created_at": "2026-05-12T12:17:26Z",
      "description": "description 12",
      "duration": 57,
      "external_id": "EXT-00000024",
      "id": 470827343,
      "links": [
        {
          "href": "/services/v4/videos/470827343",
          "rel": "self"
        },
        {
          "href": "/services/v4/videos/470827343/parent_video_groups",
          "rel": "parent_video_groups"
        },
        {
          "href": "/services/v4/videos/470827343/parent_series",
          "rel": "parent_series"
        }
      ],
      "network_id": 100001,
      "rating": "",
      "secondary_ids": [],
      "status": "ACTIVE",
      "title1": "title1 18",
      "updated_at": "2026-05-12T12:17:26Z"
    },
    {
      "content_owner_id": null,
      "created_at": "2026-05-12T12:13:54Z",
      "description": "description 11",
      "duration": null,
      "external_id": "EXT-00000025",
      "id": 470826910,
      "links": [
        {
          "href": "/services/v4/videos/470826910",
          "rel": "self"
        },
        {
          "href": "/services/v4/videos/470826910/parent_video_groups",
          "rel": "parent_video_groups"
        },
        {
          "href": "/services/v4/videos/470826910/parent_series",
          "rel": "parent_series"
        }
      ],
      "network_id": 100001,
      "rating": "",
      "secondary_ids": [],
      "status": "ACTIVE",
      "title1": "title1 19",
      "updated_at": "2026-05-12T12:13:54Z"
    },
    {
      "content_owner_id": null,
      "created_at": "2026-05-12T12:13:53Z",
      "description": "description 12",
      "duration": 57,
      "external_id": "EXT-00000026",
      "id": 470826909,
      "links": [
        {
          "href": "/services/v4/videos/470826909",
          "rel": "self"
        },
        {
          "href": "/services/v4/videos/470826909/parent_video_groups",
          "rel": "parent_video_groups"
        },
        {
          "href": "/services/v4/videos/470826909/parent_series",
          "rel": "parent_series"
        }
      ],
      "network_id": 100001,
      "rating": "",
      "secondary_ids": [],
      "status": "ACTIVE",
      "title1": "title1 20",
      "updated_at": "2026-05-12T12:13:53Z"
    },
    {
      "content_owner_id": null,
      "created_at": "2026-05-12T12:13:52Z",
      "description": "",
      "duration": null,
      "external_id": "EXT-00000027",
      "id": 470826908,
      "links": [
        {
          "href": "/services/v4/videos/470826908",
          "rel": "self"
        },
        {
          "href": "/services/v4/videos/470826908/parent_video_groups",
          "rel": "parent_video_groups"
        },
        {
          "href": "/services/v4/videos/470826908/parent_series",
          "rel": "parent_series"
        }
      ],
      "network_id": 100001,
      "rating": "",
      "secondary_ids": [],
      "status": "ACTIVE",
      "title1": "title1 21",
      "updated_at": "2026-05-12T12:13:52Z"
    },
    {
      "content_owner_id": null,
      "created_at": "2026-05-12T12:13:51Z",
      "description": "description 12",
      "duration": 57,
      "external_id": "EXT-00000028",
      "id": 470826907,
      "links": [
        {
          "href": "/services/v4/videos/470826907",
          "rel": "self"
        },
        {
          "href": "/services/v4/videos/470826907/parent_video_groups",
          "rel": "parent_video_groups"
        },
        {
          "href": "/services/v4/videos/470826907/parent_series",
          "rel": "parent_series"
        }
      ],
      "network_id": 100001,
      "rating": "",
      "secondary_ids": [],
      "status": "ACTIVE",
      "title1": "title1 22",
      "updated_at": "2026-05-12T12:13:51Z"
    }
  ],
  "links": [
    {
      "href": "/services/v4/videos?page=2&per_page=10",
      "rel": "self"
    },
    {
      "href": "/services/v4/videos?page=1&per_page=10",
      "rel": "prev"
    },
    {
      "href": "/services/v4/videos?page=3&per_page=10",
      "rel": "next"
    },
    {
      "href": "/services/v4/videos?page=462&per_page=10",
      "rel": "last"
    }
  ],
  "page": 2,
  "per_page": 10,
  "total_count": 4613,
  "total_page": 462
}
