{
  "items": [
    {
      "created_at": "2016-10-12T08:05:50Z",
      "customized_metadata": {},
      "description": null,
      "external_id": "",
      "id": 1806981,
      "links": [
        {
          "href": "/services/v4/site_sections/1806981",
          "rel": "self"
        },
        {
          "href": "/services/v4/site_sections/1806981/parent_site_groups",
          "rel": "parent_site_groups"
        },
        {
          "href": "/services/v4/site_sections/1806981/parent_sites",
          "rel": "parent_sites"
        }
      ],
      "metadata": null,
      "name": "name 141",
      "rating": null,
      "status": "Inactive",
      "tag": "tag_31",
      "updated_at": "2017-01-31T05:49:41Z"
    },
    {
      "created_at": "2016-10-12T08:05:50Z",
      "customized_metadata": {},
      "description": null,
      "external_id": "",
      "id": 1806980,
      "links": [
        {
          "href": "/services/v4/site_sections/1806980",
          "rel": "self"
        },
        {
          "href": "/services/v4/site_sections/1806980/parent_site_groups",
          "rel": "parent_site_groups"
        },
        {
          "href": "/services/v4/site_sections/1806980/parent_sites",
          "rel": "parent_sites"
        }
      ],
      "metadata": null,
      "name": "name 142",
      "rating": null,
      "status": "Active",
      "tag": "tag_32",
      "updated_at": "2017-01-31T06:02:11Z"
    },
    {
      "created_at": "2016-10-12T08:05:50Z",
      "customized_metadata": {},
      "description": null,
      "external_id": "",
      "id": 1806979,
      "links": [
        {
          "href": "/services/v4/site_sections/1806979",
          "rel": "self"
        },
        {
          "href": "/services/v4/site_sections/1806979/parent_site_groups",
          "rel": "parent_site_groups"
        },
        {
          "href": "/services/v4/site_sections/1806979/parent_sites",
          "rel": "parent_sites"
        }
      ],
      "metadata": null,
      "name": "name 143",
      "rating": null,
      "status": "Inactive",
      "tag": "tag_33",
      "updated_at": "2017-02-13T11:35:56Z"
    },
    {
      "created_at": "2016-10-12T08:05:49Z",
      "customized_metadata": {},
      "description": null,
      "external_id": "",
      "id": 1806978,
      "links": [
        {
          "href": "/services/v4/site_sections/1806978",
          "rel": "self"
        },
        {
          "href": "/services/v4/site_sections/1806978/parent_site_groups",
          "rel": "parent_site_groups"
        },
        {
          "href": "/services/v4/site_sections/1806978/parent_sites",
          "rel": "parent_sites"
        }
      ],
      "metadata": null,
      "name": "name 144",
      "rating": null,
      "status": "Inactive",
      "tag": "tag_34",
      "updated_at": "2017-02-13T11:35:55Z"
    },
    {
      "created_at": "2016-10-12T08:05:49Z",
      "customized_metadata": {},
      "description": null,
      "external_id": "",
      "id": 1806977,
      "links": [
        {
          "href": "/services/v4/site_sections/1806977",
          "rel": "self"
        },
        {
          "href": "/services/v4/site_sections/1806977/parent_site_groups",
          "rel": "parent_site_groups"
        },
        {
          "href": "/services/v4/site_sections/1806977/parent_sites",
          "rel": "parent_sites"
        }
      ],
      "metadata": null,
      "name": "name 145",
      "rating": null,
      "status": "Inactive",
      "tag": "tag_35",
      "updated_at": "2017-01-31T05:49:41Z"
    },
    {
      "created_at": "2016-10-12T08:05:48Z",
      "customized_metadata": {},
      "description": null,
      "external_id": "",
      "id": 1806976,
      "links": [
        {
          "href": "/services/v4/site_sections/1806976",
          "rel": "self"
        },
        {
          "href": "/services/v4/site_sections/1806976/parent_site_groups",
          "rel": "parent_site_groups"
        },
        {
          "href": "/services/v4/site_sections/1806976/parent_sites",
          "rel": "parent_sites"
        }
      ],
      "metadata": null,
      "name": "name 146",
      "rating": null,
      "status": "Active",
      "tag": "tag_36",
      "updated_at": "2017-01-31T06:02:10Z"
    },
    {
      "created_at": "2016-10-12T08:05:43Z",
      "customized_metadata": {},
      "description": null,
      "external_id": "",
      "id": 1806878,
      "links": [
        {
          "href": "/services/v4/site_sections/1806878",
          "rel": "self"
        },
        {
          "href": "/services/v4/site_sections/1806878/parent_site_groups",
          "rel": "parent_site_groups"
        },
        {
          "href": "/services/v4/site_sections/1806878/parent_sites",
          "rel": "parent_sites"
        }
      ],
      "metadata": null,
      "name": "name 147",
      "rating": null,
      "status": "Inactive",
      "tag": "tag_37",
      "updated_at": "2017-02-13T11:35:31Z"
    },
    {
      "created_at": "2016-10-12T08:05:43Z",
      "customized_metadata": {},
      "description": null,
      "external_id": "",
      "id": 1806876,
      "links": [
        {
          "href": "/services/v4/site_sections/1806876",
          "rel": "self"
        },
        {
          "href": "/services/v4/site_sections/1806876/parent_site_groups",
          "rel": "parent_site_groups"
        },
        {
          "href": "/services/v4/site_sections/1806876/parent_sites",
          "rel": "parent_sites"
        }
      ],
      "metadata": null,
      "name": "name 148",
      "rating": null,
      "status": "Active",
      "tag": "tag_38",
      "updated_at": "2017-01-31T06:02:03Z"
    },
    {
      "created_at": "2016-10-12T08:05:42Z",
      "customized_metadata": {},
      "description": null,
      "external_id": "",
      "id": 1806864,
      "links": [
        {
          "href": "/services/v4/site_sections/1806864",
          "rel": "self"
        },
        {
          "href": "/services/v4/site_sections/1806864/parent_site_groups",
          "rel": "parent_site_groups"
        },
        {
          "href": "/services/v4/site_sections/1806864/parent_sites",
          "rel": "parent_sites"
        }
      ],
      "metadata": null,
      "name": "name 149",
      "rating": null,
      "status": "Active",
      "tag": "tag_39",
      "updated_at": "2016-10-12T08:05:42Z"
    },
    {
      "created_at": "2016-10-12T08:05:39Z",
      "customized_metadata": {},
      "description": null,
      "external_id": "",
      "id": 1806784,
      "links": [
        {
          "href": "/services/v4/site_sections/1806784",
          "rel": "self"
        },
        {
          "href": "/services/v4/site_sections/1806784/parent_site_groups",
          "rel": "parent_site_groups"
        },
        {
          "href": "/services/v4/site_sections/1806784/parent_sites",
          "rel": "parent_sites"
        }
      ],
      "metadata": null,
      "name": "name 150",
      "rating": null,
      "status": "Active",
      "tag": "tag_40",
      "updated_at": "2016-10-12T08:05:39Z"
    }
  ],
  "links": [
    {
      "href": "/services/v4/site_sections?page=2&per_page=10",
      "rel": "self"
    },
    {
      "href": "/services/v4/site_sections?page=1&per_page=10",
      "rel": "prev"
    },
    {
      "href": "/services/v4/site_sections?page=3&per_page=10",
      "rel": "next"
    },
    {
      "href": "/services/v4/site_sections?page=6&per_page=10",
      "rel": "last"
    }
  ],
  "page": 2,
  "per_page": 10,
  "total_count": 51,
  "total_page": 6
}
