{
  "items": [
    {
      "advertiser_ids": [
        100023
      ],
      "base_ad_unit": "video",
      "base_ad_unit_id": 1,
      "clearcast_approval": "NA",
      "clearcast_code_ids": null,
      "clearcast_note": null,
      "created_at": "2016-10-26T14:08:05Z",
      "description": "",
      "duration": 30,
      "duration_type": "ESTIMATE",
      "external_id": null,
      "id": 2427707,
      "messages": [
        {
          "content": "Validation: [This creative rendition does not have its dimensions set or has dimensions set to 0x0. Please ensure the dimensions are set to match the physical creative.]",
          "type": "warning"
        },
        {
          "content": "Validation: [The content type of external url/tag for Default asset package of  - 1 should not be blank.]",
          "type": "error"
        }
      ],
      "name": "name 71",
      "rating": "AL0",
      "rating_id": 72,
      "status": "ACTIVE",
      "tag_type": "Other",
      "tag_type_id": 10000,
      "tv_vod_object_id": null,
      "tv_vod_object_type": null,
      "updated_at": "2016-10-26T14:08:05Z"
    },
    {
      "advertiser_ids": [
        100023
      ],
      "base_ad_unit": "video",
      "base_ad_unit_id": 1,
      "clearcast_approval": "NA",
      "clearcast_code_ids": null,
      "clearcast_note": null,
      "created_at": "2016-10-26T14:10:11Z",
      "description": "",
      "duration": 30,
      "duration_type": "ESTIMATE",
      "external_id": null,
      "id": 2427710,
      "messages": [
        {
          "content": "Validation: [This creative rendition does not have its dimensions set or has dimensions set to 0x0. Please ensure the dimensions are set to match the physical creative.]",
          "type": "warning"
        },
        {
          "content": "Validation: [The content type of external url/tag for Default asset package of  - 1 should not be blank.]",
          "type": "error"
        }
      ],
      "name": "name 72",
      "rating": "AL0",
      "rating_id": 72,
      "status": "ACTIVE",
      "tag_type": "MediaMind",
      "tag_type_id": 15,
      "tv_vod_object_id": null,
      "tv_vod_object_type": null,
      "updated_at": "2016-10-26T14:10:11Z"
    },
    {
      "base_ad_unit": "video",
      "base_ad_unit_id": 1,
      "clearcast_approval": "NA",
      "clearcast_code_ids": null,
      "clearcast_note": null,
      "created_at": "2016-11-01T11:55:19Z",
      "description": "",
      "duration": 25,
      "duration_type": "ESTIMATE",
      "external_id": null,
      "id": 2433733,
      "name": "name 73",
      "rating_id": null,
      "status": "ACTIVE",
      "tag_type": "Other",
      "tag_type_id": 10000,
      "tv_vod_object_id": null,
      "tv_vod_object_type": null,
      "updated_at": "2016-11-01T11:55:19Z"
    },
    {
      "base_ad_unit": "video",
      "base_ad_unit_id": 1,
      "clearcast_approval": "NA",
      "clearcast_code_ids": null,
      "clearcast_note": null,
      "created_at": "2016-11-22T15:52:38Z",
      "description": "",
      "duration": 12,
      "duration_type": "ESTIMATE",
      "external_id": null,
      "id": 2466064,
      "name": "name 74",
      "rating_id": null,
      "status": "ACTIVE",
      "tag_type": "Other",
      "tag_type_id": 10000,
      "tv_vod_object_id": null,
      "tv_vod_object_type": null,
      "updated_at": "2016-11-22T15:52:38Z"
    },
    {
      "base_ad_unit": "video",
      "base_ad_unit_id": 1,
      "clearcast_approval": "NA",
      "clearcast_code_ids": null,
      "clearcast_note": null,
      "created_at": "2016-11-22T15:58:46Z",
      "description": "",
      "duration": 12,
      "duration_type": "ESTIMATE",
      "external_id": null,
      "id": 2466090,
      "name": "name 75",
      "rating_id": null,
      "status": "ACTIVE",
      "tag_type": "Other",
      "tag_type_id": 10000,
      "tv_vod_object_id": null,
      "tv_vod_object_type": null,
      "updated_at": "2016-11-22T15:58:47Z"
    },
    {
      "base_ad_unit": "video",
      "base_ad_unit_id": 1,
      "clearcast_approval": "NA",
      "clearcast_code_ids": null,
      "clearcast_note": null,
      "created_at": "2016-11-22T18:58:18Z",
      "description": "",
      "duration": 26,
      "duration_type": "ESTIMATE",
      "external_id": null,
      "id": 2466691,
      "name": "name 76",
      "rating_id": null,
      "status": "ACTIVE",
      "tag_type": "Other",
      "tag_type_id": 10000,
      "tv_vod_object_id": null,
      "tv_vod_object_type": null,
      "updated_at": "2016-11-22T18:58:19Z"
    },
    {
      "base_ad_unit": "video",
      "base_ad_unit_id": 1,
      "clearcast_approval": "NA",
      "clearcast_code_ids": null,
      "clearcast_note": null,
      "created_at": "2016-11-22T18:59:43Z",
      "description": "",
      "duration": 26,
      "duration_type": "ESTIMATE",
      "external_id": null,
      "id": 2466700,
      "name": "name 77",
      "rating_id": null,
      "status": "ACTIVE",
      "tag_type": "Other",
      "tag_type_id": 10000,
      "tv_vod_object_id": null,
      "tv_vod_object_type": null,
      "updated_at": "2016-11-22T18:59:44Z"
    },
    {
      "advertiser_ids": [
        100023
      ],
      "base_ad_unit": "video",
      "base_ad_unit_id": 1,
      "clearcast_approval": "NA",
      "clearcast_code_ids": null,
      "clearcast_note": null,
      "created_at": "2016-11-24T14:24:12Z",
      "description": "",
      "duration": 15,
      "duration_type": "GUARANTEED",
      "external_id": null,
      "id": 2471698,
      "name": "name 78",
      "rating": "AL0",
      "rating_id": 72,
      "status": "ACTIVE",
      "tv_vod_object_id": null,
      "tv_vod_object_type": null,
      "updated_at": "2016-11-24T14:24:13Z"
    },
    {
      "advertiser_ids": [
        100022
      ],
      "base_ad_unit": "video",
      "base_ad_unit_id": 1,
      "clearcast_approval": "NA",
      "clearcast_code_ids": null,
      "clearcast_note": null,
      "created_at": "2016-11-25T13:10:43Z",
      "description": "",
      "duration": 30,
      "duration_type": "ESTIMATE",
      "external_id": null,
      "id": 2472208,
      "messages": [
        {
          "content": "Validation: [This creative rendition does not have its dimensions set or has dimensions set to 0x0. Please ensure the dimensions are set to match the physical creative.]",
          "type": "warning"
        }
      ],
      "name": "name 79",
      "rating": "AL0",
      "rating_id": 72,
      "status": "ACTIVE",
      "tag_type": "Other",
      "tag_type_id": 10000,
      "tv_vod_object_id": null,
      "tv_vod_object_type": null,
      "updated_at": "2016-11-25T13:12:49Z"
    },
    {
      "base_ad_unit": "video",
      "base_ad_unit_id": 1,
      "clearcast_approval": "NA",
      "clearcast_code_ids": null,
      "clearcast_note": null,
      "created_at": "2016-12-02T13:25:14Z",
      "description": "",
      "duration": null,
      "duration_type": "ESTIMATE",
      "external_id": null,
      "id": 2481017,
      "messages": [
        {
          "content": "Validation: [The content type of external url/tag for Default asset package of  - 1 should not be blank. The content type of external url/tag for Default asset package of  - 1 should not be blank.]",
          "type": "error"
        }
      ],
      "name": "name 80",
      "rating_id": null,
      "status": "ACTIVE",
      "tag_type": "IAB VAST 2.0",
      "tag_type_id": 16,
      "tv_vod_object_id": null,
      "tv_vod_object_type": null,
      "updated_at": "2016-12-02T13:25:14Z"
    }
  ],
  "page": 1,
  "per_page": 10,
  "total": 70,
  "total_pages": 7
}
